BeautifulSoup==3.2.1
Django==1.5.2
GnuPGInterface==0.3.2
Magic-file-extensions==0.2
Mako==0.7.1
MarkupSafe==0.15
MySQL-python==1.2.3
Nautilus-scripts-manager==1.7
PAM==0.4.2
PIL==1.1.7
Pygments==1.5
SQLAlchemy==0.7.8
Twisted-Core==12.2.0
Twisted-Names==12.2.0
Twisted-Web==12.2.0
adium-theme-ubuntu==0.3.3
apt-xapian-index==0.44
argparse==1.2.1
autokey==0.90.1
bliss==0.2.7
ccsm==0.9.8.6
chardet==2.0.1
compizconfig-python==0.9.8.6
configglue==1.0
configobj==4.7.2
crunchyfrog==0.4.2
debtagshw==0.1
decorator==3.3.3
defer==1.0.6
dirspec==4.0.0
## FIXME: could not find svn URL in dependency_links for this package:
distribute==0.6.28dev-r0
django-debug-toolbar==0.9.4
docutils==0.10
dulwich==0.8.5
duplicity==0.6.19
everpad==2.5dev
fastimport==0.9.2
feedparser==5.1.2
galternatives==0.9
gufw==12.10.0
hamster-indicator==0.0.0
html2text==3.200.3
httplib2==0.7.4
ipython==0.13.1.rc2
joblib==0.6.4
jockey==0.9.7
keyring==0.9.2
lxml==2.3.5
mod-python==3.3.1
nose==1.1.2
numpy==1.6.2
oauth==1.0.1
oauth2==1.5.211
oneconf==0.2.9.1
pacparser==1
paramiko-on-pypi==1.7.6
pdfshuffler==0.6.0
pexpect==2.4
piston-mini-client==0.7.2
protobuf==2.4.1
psycopg2==2.4.5
pyOpenSSL==0.13
pyPdf==1.13
pycrypto==2.6
pycrypto-on-pypi==2.3
pycups==1.9.62
pycurl==7.19.0
pyinotify==0.9.3
pyserial==2.5
pysmbc==1.0.13
pysqlite==2.6.3
python-apt==0.8.7ubuntu4.1
python-debian==0.1.21-nmu2ubuntu1
python-xlib==0.14
pyxdg==0.20
pyzmq==2.2.0
rabbitvcs==0.15.3
regex==0.1.20120613
reportlab==2.5
rhythmbox-ubuntuone==4.0.0
scikit-learn==0.12.1
scipy==0.10.1
screen-resolution-extra==0.0.0
sessioninstaller==0.0.0
simplegeneric==0.8.1
simplejson==2.6.1
six==1.1.0
software-center-aptd-plugins==0.0.0
stgit==0.15
system-service==0.1.6
tornado==2.3
uTidylib==0.2
ubuntu-tweak==0.8.0
ubuntuone-couch==0.3.0
ubuntuone-storage-protocol==4.0.0
unity-singlet==0.2.2
usb-creator==0.2.23
vboxapi==1.0
wsgiref==0.1.2
xdiagnose==3.2.4
xkit==0.0.0
zope.interface==3.6.1

